<svg id="logo-icon" width="32" height="33" viewBox="0 0 32 33" fill="none" xmlns="http://www.w3.org/2000/svg">
<path d="M16.038 32.5528C7.29831 32.5528 0.235901 25.3984 0.235901 16.5447C0.235901 12.252 1.91322 8.22763 4.82646 5.18698C7.82799 2.14633 11.8006 0.447144 16.038 0.447144C24.7778 0.447144 31.8402 7.60161 31.8402 16.4553C31.8402 25.3089 24.7778 32.4634 16.038 32.5528Z" fill="url(#paint0_linear)"/>
<mask id="mask0" mask-type="alpha" maskUnits="userSpaceOnUse" x="0" y="0" width="32" height="33">
<path d="M16.0381 32.5528C7.29837 32.5528 0.235962 25.3984 0.235962 16.5447C0.235962 12.252 1.91328 8.22763 4.82653 5.18698C7.82805 2.14633 11.8007 0.447144 16.0381 0.447144C24.7778 0.447144 31.8402 7.60161 31.8402 16.4553C31.8402 25.3089 24.7778 32.4634 16.0381 32.5528Z" fill="url(#paint1_linear)"/>
</mask>
<g mask="url(#mask0)">
<path d="M33.3367 13.3902L-1.00427 13.4397L-0.995753 19.6104L33.3452 19.561L33.3367 13.3902Z" fill="black"/>
<path d="M33.3367 25.8211L-1.00427 25.8706L-0.995753 32.0413L33.3452 31.9919L33.3367 25.8211Z" fill="black"/>
<path d="M33.3367 0.959191L-1.00427 1.00867L-0.995753 7.1794L33.3452 7.12992L33.3367 0.959191Z" fill="black"/>
<path d="M16.0381 0.98374C24.513 0.98374 31.3988 7.95935 31.3988 16.5447C31.3988 25.1301 24.513 32.1057 16.0381 32.1057C7.56322 32.1057 0.677379 25.1301 0.677379 16.5447C0.677379 7.95935 7.56322 0.98374 16.0381 0.98374ZM16.0381 0C11.6241 0 7.56322 1.69919 4.47342 4.82927C1.38362 7.95935 -0.293701 12.0732 -0.293701 16.5447C-0.293701 25.6667 7.03355 33 15.9498 33C20.3638 33 24.4247 31.3008 27.5145 28.1707C30.6043 25.0406 32.2816 20.9268 32.2816 16.4553C32.2816 7.42276 25.0427 0 16.0381 0Z" fill="white"/>
</g>
<defs>
<linearGradient id="paint0_linear" x1="0.22336" y1="16.5181" x2="31.8474" y2="16.474" gradientUnits="userSpaceOnUse">
<stop stop-color="#E8990C"/>
<stop offset="0.3903" stop-color="#F4B40D"/>
<stop offset="0.7418" stop-color="#FCC60D"/>
<stop offset="1" stop-color="#FFCC0D"/>
</linearGradient>
<linearGradient id="paint1_linear" x1="0.223421" y1="16.5181" x2="31.8475" y2="16.474" gradientUnits="userSpaceOnUse">
<stop stop-color="#E8990C"/>
<stop offset="0.3903" stop-color="#F4B40D"/>
<stop offset="0.7418" stop-color="#FCC60D"/>
<stop offset="1" stop-color="#FFCC0D"/>
</linearGradient>
</defs>
</svg>
