<svg id="person-silver" width="44" height="40" viewBox="0 0 44 40" fill="none" xmlns="http://www.w3.org/2000/svg">
<path d="M16.6222 28.0745C17.6 27.8261 17.8444 25.0932 17.8444 25.0932C17.8444 25.0932 14.6667 22.1118 13.9333 18.1366C11.9778 18.1366 11 13.913 12.7111 12.4224C12.7111 10.9317 10.2667 0 22 0C33.7333 0 31.5333 10.6832 31.2889 12.4224C33.2444 13.913 32.0222 18.1366 30.0667 18.1366C29.3333 22.1118 26.1556 25.0932 26.1556 25.0932C26.1556 25.0932 26.1556 27.8261 27.3778 28.0745C30.8 28.5714 44 34.0373 44 40H22H0C0 34.0373 12.9556 28.5714 16.6222 28.0745Z" fill="#EBEEF5"/>
<path d="M17.9474 25C17.9474 25 22.6842 28.5667 26 25C26 25 24.1053 29.2801 17 27.6156C17.2368 27.3778 17.7105 26.9023 17.9474 25Z" fill="#B3B9C4"/>
</svg>
